%YAML 1.1
%TAG !u! tag:unity3d.com,2011:
--- !u!114 &11400000
MonoBehaviour:
  m_ObjectHideFlags: 0
  m_PrefabParentObject: {fileID: 0}
  m_PrefabInternal: {fileID: 0}
  m_GameObject: {fileID: 0}
  m_Enabled: 1
  m_EditorHideFlags: 0
  m_Script: {fileID: -513984345, guid: cf6d42fa8095fe04592b3d062cda4765, type: 3}
  m_Name: ResonaiAssetsReference
  m_EditorClassIdentifier: 
  resonaiAssetsReference: {fileID: 11400000}
  textureStarOff: {fileID: 2800000, guid: 01460fee0e71bd64d9e288d929898bfb, type: 3}
  textureStarOn: {fileID: 2800000, guid: b58868a187f1c9e4582f135f76519c5e, type: 3}
  assetInfoPrefab: {fileID: 1383854105461254, guid: afaeb1ce4d797184aa3d0ff8c8fc9daf,
    type: 2}
  spinnerTexture: {fileID: 2800000, guid: c49771c93170f6c458f87a7514d0689d, type: 3}
  textureHowToOpenSearch: {fileID: 2800000, guid: df8398fdff6b4f442bd110015864daf6,
    type: 3}
  textureLoginUnityEditor: {fileID: 2800000, guid: 81bc0a8400e2ff64c87cd8a811454989,
    type: 3}
  textureTransparentRect: {fileID: 2800000, guid: f0d2b6804b9c67f4e8b57382c265baef,
    type: 3}
  textureDropArrow: {fileID: 2800000, guid: 4bba8d05f033ff847b5608eb3112f0fb, type: 3}
  textureRoundedSearchBox: {fileID: 2800000, guid: a90e6968dac80aa4d867fc95320fd860,
    type: 3}
  textureTriangle: {fileID: 2800000, guid: 3c80ed973da1ab84f831f9368dc10cac, type: 3}
  rapidoGUIStyles: {fileID: 11400000, guid: c4d64589a2603314cadb634e2bbf540b, type: 2}
